…
```r
a 
```

```
## # A tibble: 148 x 14
##    `Study ID` `Lead author` `Date published` Country `Sample size`
##         <int> <chr>         <date>           <chr>           <dbl>
##  1          1 Guan, Ni      2020-02-28       China            1099
##  2          2 Guan, Liang   2020-03-26       China            1590
##  3          3 Lian          2020-03-25       China             788
##  4          4 Jin           2020-03-24       China             651
##  5          5 Chen          2020-03-26       China             548
##  6          6 Zhou, Yu      2020-03-11       China             191
##  7          7 Mo            2020-03-16       China             155
##  8          8 Zhang, Dong   2020-02-19       China             140
##  9          9 Wan           2020-03-21       China             135
## 10         10 Liu, Tao      2020-02-28       China              78
## # ... with 138 more rows, and 9 more variables: `Study setting` <chr>, `Median
## #   (IQR)` <chr>, `Female %` <dbl>, `Current smoker %` <dbl>, `Current/former
## #   smokers %` <dbl>, `Never smokers %` <dbl>, `Never/unknown smokers %` <dbl>,
## #   `Missing %` <chr>, `Study quality` <chr>
```
…
